2026-06-18 18:06:29 INFO 
======================================== REQUEST ========================================
2026-06-18 18:06:29 INFO [32mpytest tests/api/test_movie_api.py::TestMovieAPI::test_get_movies_with_parametrize[Test # 1][0m
curl -X GET 'https://api.dev-cinescope.coconutqa.ru/movies?minPrice=4&maxPrice=875&locations=MSK&genreId=3' \
-H 'User-Agent: python-requests/2.32.5' \
-H 'Accept-Encoding: gzip, deflate' \
-H 'Accept: application/json' \
-H 'Connection: keep-alive' \
-H 'Content-Type: application/json' \
-H 'Authorization: Bearer eyJhbGciOiJIUzI1NiIsInR5cCI6IkpXVCJ9.eyJpZCI6IjczNDk2NGVjLTRkNmEtNDc4OS04MzlmLTc1Nzk3MTQxZTczZSIsImVtYWlsIjoiYXBpMUBnbWFpbC5jb20iLCJyb2xlcyI6WyJVU0VSIiwiQURNSU4iLCJTVVBFUl9BRE1JTiJdLCJ2ZXJpZmllZCI6dHJ1ZSwiaWF0IjoxNzgxODA1OTg4LCJleHAiOjE3ODE4MDc3ODh9.FW1lmTvc9_OwVxXDvOtPO54J-13vi3KD5yLg1ApMfxc' \

2026-06-18 18:06:29 INFO 
======================================== RESPONSE ========================================
2026-06-18 18:06:29 INFO 	STATUS_CODE: [32m200[0m
	DATA:
{
    "movies": [
        {
            "id": 586,
            "name": "Универсальная и контекстуальная служба техподдержки",
            "description": "Son trade near resource. Think heart onto its number. Quite authority stand still plant significant whom.\nAgent spend war available yes interview.",
            "genreId": 3,
            "imageUrl": "https://encrypted-tbn0.gstatic.com/images?q=tbn:ANd9G",
            "price": 846,
            "rating": 1,
            "location": "MSK",
            "published": true,
            "createdAt": "2025-05-20T20:59:25.137Z",
            "genre": {
                "name": "Фантастика"
            }
        },
        {
            "id": 595,
            "name": "Автоматизированная и прибыльная конгломерация",
            "description": "Вывести спалить хотеть какой бригада важный анализ лететь. Вздрогнуть висеть точно идея военный. Инфекция более изменение очутиться совещание.",
            "genreId": 3,
            "imageUrl": "https://encrypted-tbn0.gstatic.com/images?q=tbn:ANd9G",
            "price": 140,
            "rating": 3,
            "location": "MSK",
            "published": true,
            "createdAt": "2025-05-20T21:26:21.877Z",
            "genre": {
                "name": "Фантастика"
            }
        },
        {
            "id": 600,
            "name": "Самодостаточный и действенный доступ",
            "description": "Висеть военный расстегнуть ботинок ручей еврейский задержать. Дьявол способ инвалид вздрогнуть.",
            "genreId": 3,
            "imageUrl": "https://encrypted-tbn0.gstatic.com/images?q=tbn:ANd9G",
            "price": 275,
            "rating": 2,
            "location": "MSK",
            "published": true,
            "createdAt": "2025-05-20T21:26:24.173Z",
            "genre": {
                "name": "Фантастика"
            }
        },
        {
            "id": 602,
            "name": "Контролируемая и асинхронная ценовая структура",
            "description": "Скользить достоинство новый скрытый роскошный упор. Заявление бетонный инвалид.",
            "genreId": 3,
            "imageUrl": "https://encrypted-tbn0.gstatic.com/images?q=tbn:ANd9G",
            "price": 543,
            "rating": 2,
            "location": "MSK",
            "published": true,
            "createdAt": "2025-05-20T21:27:10.761Z",
            "genre": {
                "name": "Фантастика"
            }
        },
        {
            "id": 603,
            "name": "Поэтапный и логистический продукт",
            "description": "Достоинство успокоиться прежний изредка сбросить налево. Способ командир цепочка теория плясать секунда вскакивать.",
            "genreId": 3,
            "imageUrl": null,
            "price": 314,
            "rating": 0,
            "location": "MSK",
            "published": true,
            "createdAt": "2025-05-20T21:27:11.154Z",
            "genre": {
                "name": "Фантастика"
            }
        },
        {
            "id": 610,
            "name": "Устойчивый и последовательный интерфейс",
            "description": "Чувство вывести отдел грудь. Парень добиться более слишком.\nЯгода кольцо тысяча. Основание вперед провал. Снимать невыносимый встать зима мрачно.",
            "genreId": 3,
            "imageUrl": "https://encrypted-tbn0.gstatic.com/images?q=tbn:ANd9G",
            "price": 628,
            "rating": 9,
            "location": "MSK",
            "published": true,
            "createdAt": "2025-05-20T22:15:42.975Z",
            "genre": {
                "name": "Фантастика"
            }
        },
        {
            "id": 611,
            "name": "Многогранный и двунаправленный мониторинг",
            "description": "Очередной отражение наступать изучить дыхание. Кузнец коричневый мимо.",
            "genreId": 3,
            "imageUrl": null,
            "price": 276,
            "rating": 3,
            "location": "MSK",
            "published": true,
            "createdAt": "2025-05-20T22:15:43.309Z",
            "genre": {
                "name": "Фантастика"
            }
        },
        {
            "id": 660,
            "name": "Переключаемое и глобальное совершенствование процесса",
            "description": "Налоговый научить налоговый пропаганда видимо господь. Дьявол голубчик тута важный белье набор.\nГулять бегать сверкать командующий. Единый народ порог рабочий дурацкий.",
            "genreId": 3,
            "imageUrl": "https://rao.info/",
            "price": 634,
            "rating": 1,
            "location": "MSK",
            "published": true,
            "createdAt": "2025-05-21T11:57:33.870Z",
            "genre": {
                "name": "Фантастика"
            }
        },
        {
            "id": 707,
            "name": "Оптимизированная и интерактивная модель",
            "description": "Куча дьявол находить теория. Запеть смертельный стакан радость салон салон госпожа.\nДремать устройство райком запеть. Коммунизм торговля школьный мимо.",
            "genreId": 3,
            "imageUrl": null,
            "price": 363,
            "rating": 0,
            "location": "MSK",
            "published": true,
            "createdAt": "2025-05-21T15:00:42.566Z",
            "genre": {
                "name": "Фантастика"
            }
        },
        {
            "id": 713,
            "name": "Безопасное и модульное решение",
            "description": "Славный пол счастье.\nЗарплата мера ручей присесть советовать багровый стакан. Актриса торопливый военный сынок единый передо.\nБолее привлекать правление. Через карандаш сустав пробовать протягивать.",
            "genreId": 3,
            "imageUrl": "https://encrypted-tbn0.gstatic.com/images?q=tbn:ANd9G",
            "price": 218,
            "rating": 2,
            "location": "MSK",
            "published": true,
            "createdAt": "2025-05-21T21:17:07.681Z",
            "genre": {
                "name": "Фантастика"
            }
        }
    ],
    "count": 303,
    "page": 1,
    "pageSize": 10,
    "pageCount": 31
}
2026-06-18 18:06:29 INFO ================================================================================