2026-06-18 18:06:18 INFO 
======================================== REQUEST ========================================
2026-06-18 18:06:18 INFO [32mpytest tests/api/test_movie_api.py::TestMovieAPI::test_get_movies[0m
curl -X GET 'https://api.dev-cinescope.coconutqa.ru/movies?pageSize=5&page=1' \
-H 'User-Agent: python-requests/2.32.5' \
-H 'Accept-Encoding: gzip, deflate' \
-H 'Accept: application/json' \
-H 'Connection: keep-alive' \
-H 'Content-Type: application/json' \
-H 'Authorization: Bearer eyJhbGciOiJIUzI1NiIsInR5cCI6IkpXVCJ9.eyJpZCI6IjczNDk2NGVjLTRkNmEtNDc4OS04MzlmLTc1Nzk3MTQxZTczZSIsImVtYWlsIjoiYXBpMUBnbWFpbC5jb20iLCJyb2xlcyI6WyJVU0VSIiwiQURNSU4iLCJTVVBFUl9BRE1JTiJdLCJ2ZXJpZmllZCI6dHJ1ZSwiaWF0IjoxNzgxODA1OTc3LCJleHAiOjE3ODE4MDc3Nzd9.aqjw1c_apZ_y9MB5oTMz-LLqsfc3nlnmN6vS1oDq2nA' \

2026-06-18 18:06:18 INFO 
======================================== RESPONSE ========================================
2026-06-18 18:06:18 INFO 	STATUS_CODE: [32m200[0m
	DATA:
{
    "movies": [
        {
            "id": 582,
            "name": "Управляемая и максимальная вероятность",
            "description": "Правление командир провал пересечь юный иной сустав отметить. Аллея кольцо упорно советовать освобождение. Войти металл гулять прежний.",
            "genreId": 3,
            "imageUrl": null,
            "price": 1000,
            "rating": 0,
            "location": "SPB",
            "published": true,
            "createdAt": "2025-05-20T20:59:23.188Z",
            "genre": {
                "name": "Фантастика"
            }
        },
        {
            "id": 586,
            "name": "Универсальная и контекстуальная служба техподдержки",
            "description": "Son trade near resource. Think heart onto its number. Quite authority stand still plant significant whom.\nAgent spend war available yes interview.",
            "genreId": 3,
            "imageUrl": "https://encrypted-tbn0.gstatic.com/images?q=tbn:ANd9G",
            "price": 846,
            "rating": 1,
            "location": "MSK",
            "published": true,
            "createdAt": "2025-05-20T20:59:25.137Z",
            "genre": {
                "name": "Фантастика"
            }
        },
        {
            "id": 588,
            "name": "Многогранная и переходная проекция",
            "description": "Господь реклама демократия чем горький пламя крутой фонарик. Боец пересечь через уточнить слать сынок. Господь заявление жидкий порода хлеб соответствие горький.",
            "genreId": 3,
            "imageUrl": "https://encrypted-tbn0.gstatic.com/images?q=tbn:ANd9G",
            "price": 517,
            "rating": 4,
            "location": "SPB",
            "published": true,
            "createdAt": "2025-05-20T20:59:56.582Z",
            "genre": {
                "name": "Фантастика"
            }
        },
        {
            "id": 589,
            "name": "Single way.",
            "description": "Safe these matter set letter.\nLet eye however. Glass off factor TV send two such. Whatever wish born. Party be decide environment daughter push chair partner.",
            "genreId": 4,
            "imageUrl": "https://dummyimage.com/11x659",
            "price": 258,
            "rating": 0,
            "location": "SPB",
            "published": true,
            "createdAt": "2025-05-20T20:59:56.997Z",
            "genre": {
                "name": "Криминал"
            }
        },
        {
            "id": 595,
            "name": "Автоматизированная и прибыльная конгломерация",
            "description": "Вывести спалить хотеть какой бригада важный анализ лететь. Вздрогнуть висеть точно идея военный. Инфекция более изменение очутиться совещание.",
            "genreId": 3,
            "imageUrl": "https://encrypted-tbn0.gstatic.com/images?q=tbn:ANd9G",
            "price": 140,
            "rating": 3,
            "location": "MSK",
            "published": true,
            "createdAt": "2025-05-20T21:26:21.877Z",
            "genre": {
                "name": "Фантастика"
            }
        }
    ],
    "count": 4828,
    "page": 1,
    "pageSize": 5,
    "pageCount": 966
}
2026-06-18 18:06:18 INFO ================================================================================